{
    "boundsExpEps": [
        [
            0,
            -2,
            -0.30
        ],
        [
            60,
            120,
            0.30
        ]
    ],
    "colToUse": [
        "run",
        "time",
        "droplet_id",
        "fluo_1_std",
        "fluo_1_median",
        "fluo_2_median",
        "fluo_2_std",
        "scattering_std",
        "scattering_median"
    ],
    "colToUseResa": [
        "run",
        "fluo_2_median",
        "fluo_2_std",
        "time",
        "droplet_id"
    ],
    "dictChannels": {
        "1": [
            "fluo_1_median",
            "longdash",
            "pyranine (pH)"
        ],
        "2": [
            "fluo_2_median",
            "solid",
            "resazurin (respiration)"
        ],
        "5": [
            "scattering_median",
            "dot",
            "Scattered light"
        ]
    },
    "dictErrorBars": {
        "1": [
            "fluo_1_std",
            "pyranine (pH)"
        ],
        "2": [
            "fluo_2_std",
            "resazurin (respiration)"
        ],
        "5": [
            "scattering_std",
            "Particles"
        ]
    },
    "dottedRuns": 5,
    "errorBarsActivated": false,
    "etalonnageGain32": {
        "fluo_1_median": [
            0.0037,
            0.0704,
            1.3587,
            2.3596,
            3.2633
        ],
        "scattering_median": [
            2.163,
            2.876,
            3.454,
            3.539,
            3.559
        ]
    },
    "etalonnageGain32_II": {
        "fluo_1_median": [
            0.002000,
            0.014375,
            0.123400,
            0.590650,
            1.377250,
            2.881475,
            3.246475
        ],
        "scattering_median": [
            0.935750,
            1.757700,
            2.693925,
            2.834100,
            2.842275,
            3.098100,
            3.178850
        ]
    },
    "etalonnageGain32citrate": {
        "fluo_1_median": [
            0.004,
            0.017,
            0.105,
            0.266,
            1.662
        ],
        "scattering_median": [
            1.937,
            2.183,
            2.37,
            2.405,
            2.514
        ]
    },
    "etalonnageGain34": {
        "fluo_1_median": [
            4.57,
            3.87,
            2.33,
            0.147,
            0.0175,
            0.0042,
            0.0031
        ],
        "scattering_median": [
            3.57,
            3.54,
            3.47,
            2.83,
            1.99,
            0.39,
            0.35
        ]
    },
    "fontDict": {
        "family": "serif",
        "size": 20,
        "color": "darkred"
    },
    "listOfDropsAndWells": [
        [
            "Controle","Pikovskaya","controle","pikovskaya"
        ],
        [
            "Sol 1 - 1_100",
            "Sol 1_100",
            "Sol - 1_100",
            "EGM 1_50",
            "sol 1_100",
            "Sol 1_100"            
        ],
        [
            "Sol 1 - 1_1000",
            "Sol - 1_1000",
            "Sol 1_1000",
            "EGM 1_500",
            "sol 1_1000",
            "Sol 1_1000"
        ],
        [
            "Sol 1 - 1_10000",
            "Sol 1_10000",
            "sol 1_10000"
        ],
        [
            "Sol 2 - 1_100"
        ],
        [
            "Sol 2 - 1_1000"
        ],
        [
            "Sol 2 - 1_10000"
        ],
        [
            "Souche 1 - 1_100000","Souche - 1_100000"
        ],
        [
            "Souche 1 - 1_10000","Souche - 1_10000"
        ],
        [
            "Souche 1 - 1_1000","Souche - 1_1000"
        ],
        [
            "Souche 1 - 1_100","Souche - 1_100"
        ],
        [
            "Souche 2 - 1_100000"
        ],
        [
            "Souche 2 - 1_10000"
        ],
        [
            "Souche 2 - 1_1000"
        ],
        [
            "Souche 2 - 1_100"
        ],
        [
            "Sol - 1_200"
        ]
    ],
    "maxNumbersOfRuns": 15,
    "maxTime": 42,
    "p0Exp": [
        1,
        30
    ],
    "p0ExpEps": [
        1,
        10,
        -0.01
    ],
    "p0Log": [
        1,
        0.0001,
        1.2
    ],
    "regressionType": "expEps",
    "runMax": 100,
    "runMin": 0,
    "scaleV": "auto",
    "seuilRegressionResa": 0.04,
    "seuilRegressionScatt": 0.04,
    "seuilRegressionPyra":0.04,
    "strTitle": "MilliDrop - Soil microbes",
    "updatemenus": [
        {
            "type": "buttons",
            "active": 0,
            "buttons": [
                {
                    "args": [
                        {
                            "yaxis.type": "linear"
                        }
                    ],
                    "label": "Linear<br>scale",
                    "method": "relayout"
                },
                {
                    "args": [
                        {
                            "yaxis.type": "log"
                        }
                    ],
                    "label": "Log<br>scale",
                    "method": "relayout"
                }
            ]
        }
    ]
}